<?xml version="1.0" encoding="UTF-8" standalone="no"?>
<!DOCTYPE svg PUBLIC "-//W3C//DTD SVG 1.1//EN" "http://www.w3.org/Graphics/SVG/1.1/DTD/svg11.dtd">
<svg width="100%" height="100%" viewBox="0 0 348 100" version="1.1" xmlns="http://www.w3.org/2000/svg" xmlns:xlink="http://www.w3.org/1999/xlink" xml:space="preserve" xmlns:serif="http://www.serif.com/" style="fill-rule:evenodd;clip-rule:evenodd;stroke-linejoin:round;stroke-miterlimit:1.41421;">
    <g id="Orange-Button-Rounded-Outline" transform="matrix(2.2305,0,0,2.22202,-1556.89,-488.845)">
        <path d="M854,265L698,265L698,220L854,220L854,265ZM698.897,220.9L698.897,264.1L853.103,264.1L853.103,220.9L698.897,220.9Z" style="fill:rgb(255,146,58);"/>
    </g>
</svg>
